week1/wave.vcd
$version Generated by VerilatedVcd $end
$date Thu Mar  2 02:44:33 2023
 $end
$timescale  10s $end

 $scope module top $end
  $var wire  1 Y clk_i $end
  $var wire  1 X rst_i $end
  $scope module test_top $end
   $var wire  1 F ce_wire $end
   $var wire  1 Y clk_i $end
   $var wire 32 N id_exe_inst_o [31:0] $end
   $var wire 32 J id_exe_op1_o [31:0] $end
   $var wire 32 K id_exe_op2_o [31:0] $end
   $var wire  5 M id_exe_reg_waddr_o [4:0] $end
   $var wire  1 L id_exe_reg_we_o $end
   $var wire 32 Z id_inst_o [31:0] $end
   $var wire 32 [ id_op1_o [31:0] $end
   $var wire 32 \ id_op2_o [31:0] $end
   $var wire  5 _ id_reg1_addr_o [4:0] $end
   $var wire  1 ] id_reg1_re_o $end
   $var wire  5 # id_reg2_addr_o [4:0] $end
   $var wire  1 d id_reg2_re_o $end
   $var wire  5 ^ id_reg_waddr_o [4:0] $end
   $var wire  1 ] id_reg_we_o $end
   $var wire 32 H if_id_inst_addr_o [31:0] $end
   $var wire 32 I if_id_inst_o [31:0] $end
   $var wire 32 E if_inst_addr_o [31:0] $end
   $var wire 32 G if_inst_o [31:0] $end
   $var wire 32 E pc_wire [31:0] $end
   $var wire 32 ` reg1_data_o [31:0] $end
   $var wire 32 e reg2_data_o [31:0] $end
   $var wire  1 X rst_i $end
   $scope module id0 $end
    $var wire 32 c i_op1_o [31:0] $end
    $var wire 32 R i_op2_o [31:0] $end
    $var wire  5 P i_reg1_raddr_o [4:0] $end
    $var wire  1 Q i_reg1_re_o $end
    $var wire  5 f i_reg2_raddr_o [4:0] $end
    $var wire  1 d i_reg2_re_o $end
    $var wire  5 S i_reg_waddr_o [4:0] $end
    $var wire  1 Q i_reg_we_o $end
    $var wire 32 H inst_addr_i [31:0] $end
    $var wire 32 I inst_i [31:0] $end
    $var wire 32 Z inst_o [31:0] $end
    $var wire 32 [ op1_o [31:0] $end
    $var wire 32 a op1_o_final [31:0] $end
    $var wire 32 \ op2_o [31:0] $end
    $var wire 32 b op2_o_final [31:0] $end
    $var wire  7 O opcode [6:0] $end
    $var wire  5 _ reg1_raddr_o [4:0] $end
    $var wire 32 ` reg1_rdata_i [31:0] $end
    $var wire  1 ] reg1_re_o $end
    $var wire  5 # reg2_raddr_o [4:0] $end
    $var wire 32 e reg2_rdata_i [31:0] $end
    $var wire  1 d reg2_re_o $end
    $var wire  5 ^ reg_waddr_o [4:0] $end
    $var wire  1 ] reg_we_o $end
    $var wire  1 X rst_i $end
    $scope module inst_type_i $end
     $var wire  3 U funct3 [2:0] $end
     $var wire 32 I inst_i [31:0] $end
     $var wire 32 c op1_o [31:0] $end
     $var wire 32 R op2_o [31:0] $end
     $var wire  5 T rd [4:0] $end
     $var wire  5 P reg1_raddr_o [4:0] $end
     $var wire 32 ` reg1_rdata_i [31:0] $end
     $var wire  1 Q reg1_re_o $end
     $var wire  5 f reg2_raddr_o [4:0] $end
     $var wire 32 e reg2_rdata_i [31:0] $end
     $var wire  1 d reg2_re_o $end
     $var wire  5 S reg_waddr_o [4:0] $end
     $var wire  1 Q reg_we_o $end
     $var wire  5 V rs1 [4:0] $end
    $upscope $end
   $upscope $end
   $scope module id_exe0 $end
    $var wire  1 Y clk_i $end
    $var wire 32 Z inst_i [31:0] $end
    $var wire 32 N inst_o [31:0] $end
    $var wire 32 [ op1_i [31:0] $end
    $var wire 32 J op1_o [31:0] $end
    $var wire 32 \ op2_i [31:0] $end
    $var wire 32 K op2_o [31:0] $end
    $var wire  5 ^ reg_waddr_i [4:0] $end
    $var wire  5 M reg_waddr_o [4:0] $end
    $var wire  1 ] reg_we_i $end
    $var wire  1 L reg_we_o $end
    $var wire  1 X rst_i $end
   $upscope $end
   $scope module if_id0 $end
    $var wire  1 Y clk_i $end
    $var wire 32 E inst_addr_i [31:0] $end
    $var wire 32 H inst_addr_o [31:0] $end
    $var wire 32 G inst_i [31:0] $end
    $var wire 32 I inst_o [31:0] $end
    $var wire  1 X rst_i $end
   $upscope $end
   $scope module pc_reg0 $end
    $var wire  1 F ce_o $end
    $var wire  1 Y clk_i $end
    $var wire 32 E pc_o [31:0] $end
    $var wire  1 X rst_i $end
   $upscope $end
   $scope module regfile0 $end
    $var wire  1 Y clk_i $end
    $var wire 32 D i [31:0] $end
    $var wire  5 _ raddr1_i [4:0] $end
    $var wire  5 # raddr2_i [4:0] $end
    $var wire 32 ` rdata1_o [31:0] $end
    $var wire 32 e rdata2_o [31:0] $end
    $var wire  1 ] re1_i $end
    $var wire  1 d re2_i $end
    $var wire 32 $ regs(0) [31:0] $end
    $var wire 32 % regs(1) [31:0] $end
    $var wire 32 . regs(10) [31:0] $end
    $var wire 32 / regs(11) [31:0] $end
    $var wire 32 0 regs(12) [31:0] $end
    $var wire 32 1 regs(13) [31:0] $end
    $var wire 32 2 regs(14) [31:0] $end
    $var wire 32 3 regs(15) [31:0] $end
    $var wire 32 4 regs(16) [31:0] $end
    $var wire 32 5 regs(17) [31:0] $end
    $var wire 32 6 regs(18) [31:0] $end
    $var wire 32 7 regs(19) [31:0] $end
    $var wire 32 & regs(2) [31:0] $end
    $var wire 32 8 regs(20) [31:0] $end
    $var wire 32 9 regs(21) [31:0] $end
    $var wire 32 : regs(22) [31:0] $end
    $var wire 32 ; regs(23) [31:0] $end
    $var wire 32 < regs(24) [31:0] $end
    $var wire 32 = regs(25) [31:0] $end
    $var wire 32 > regs(26) [31:0] $end
    $var wire 32 ? regs(27) [31:0] $end
    $var wire 32 @ regs(28) [31:0] $end
    $var wire 32 A regs(29) [31:0] $end
    $var wire 32 ' regs(3) [31:0] $end
    $var wire 32 B regs(30) [31:0] $end
    $var wire 32 C regs(31) [31:0] $end
    $var wire 32 ( regs(4) [31:0] $end
    $var wire 32 ) regs(5) [31:0] $end
    $var wire 32 * regs(6) [31:0] $end
    $var wire 32 + regs(7) [31:0] $end
    $var wire 32 , regs(8) [31:0] $end
    $var wire 32 - regs(9) [31:0] $end
    $var wire  1 X rst_i $end
   $upscope $end
   $scope module rom0 $end
    $var wire 21 W addr4 [20:0] $end
    $var wire 32 E addr_i [31:0] $end
    $var wire  1 F ce_i $end
    $var wire  1 Y clk_i $end
    $var wire 32 G inst_o [31:0] $end
   $upscope $end
  $upscope $end
 $upscope $end
$enddefinitions $end


#5
b00000 #
b00000000000000000000000000000000 $
b00000000000000000000000000000000 %
b00000000000000000000000000000000 &
b00000000000000000000000000000000 '
b00000000000000000000000000000000 (
b00000000000000000000000000000000 )
b00000000000000000000000000000000 *
b00000000000000000000000000000000 +
b00000000000000000000000000000000 ,
b00000000000000000000000000000000 -
b00000000000000000000000000000000 .
b00000000000000000000000000000000 /
b00000000000000000000000000000000 0
b00000000000000000000000000000000 1
b00000000000000000000000000000000 2
b00000000000000000000000000000000 3
b00000000000000000000000000000000 4
b00000000000000000000000000000000 5
b00000000000000000000000000000000 6
b00000000000000000000000000000000 7
b00000000000000000000000000000000 8
b00000000000000000000000000000000 9
b00000000000000000000000000000000 :
b00000000000000000000000000000000 ;
b00000000000000000000000000000000 <
b00000000000000000000000000000000 =
b00000000000000000000000000000000 >
b00000000000000000000000000000000 ?
b00000000000000000000000000000000 @
b00000000000000000000000000000000 A
b00000000000000000000000000000000 B
b00000000000000000000000000000000 C
b00000000000000000000000000100000 D
b00000000000000000000000000000000 E
0F
b00000000000000000000000000000000 G
b00000000000000000000000000000000 H
b00000000000000000000000000000000 I
b00000000000000000000000000000000 J
b00000000000000000000000000000000 K
0L
b00000 M
b00000000000000000000000000000000 N
b0000000 O
b00000 P
0Q
b00000000000000000000000000000000 R
b00000 S
b00000 T
b000 U
b00000 V
b000000000000000000000 W
1X
0Y
b00000000000000000000000000010011 Z
b00000000000000000000000000000000 [
b00000000000000000000000000000000 \
0]
b00000 ^
b00000 _
b00000000000000000000000000000000 `
b00000000000000000000000000000000 a
b00000000000000000000000000000000 b
b00000000000000000000000000000000 c
0d
b00000000000000000000000000000000 e
b00000 f
#10
b00000000000000000000000000010011 I
b00000000000000000000000000010011 N
b0010011 O
1Y
#15
0Y
#20
1Y
#25
0Y
#30
1Y
#35
0Y
#40
1Y
#45
0Y
#50
1Y
#55
0X
0Y
#60
1F
b00000000000000000000000000000000 I
b0000000 O
1Y
#65
0Y
#70
b00000000000000000000000000000100 E
b11111111111000011110001010010011 G
b000000000000000000100 W
1Y
#75
0Y
#80
b00000000000000000000000000001000 E
b00000000000000000000000000000000 G
b00000000000000000000000000000100 H
b11111111111000011110001010010011 I
b0010011 O
b00011 P
1Q
b11111111111111111111111111111110 R
b00101 S
b00101 T
b110 U
b00011 V
b000000000000000001000 W
1Y
b11111111111000011110001010010011 Z
b11111111111111111111111111111110 \
1]
b00101 ^
b00011 _
b11111111111111111111111111111110 b
#85
0Y
#90
b00000000000000000000000000001100 E
b00000000000000000000000000001000 H
b00000000000000000000000000000000 I
b11111111111111111111111111111110 K
1L
b00101 M
b11111111111000011110001010010011 N
b0000000 O
b00000 P
0Q
b00000000000000000000000000000000 R
b00000 S
b00000 T
b000 U
b00000 V
b000000000000000001100 W
1Y
b00000000000000000000000000010011 Z
b00000000000000000000000000000000 \
0]
b00000 ^
b00000 _
b00000000000000000000000000000000 b
#95
0Y
#100
b00000000000000000000000000010000 E
b00000000000000000000000000001100 H
b00000000000000000000000000000000 K
0L
b00000 M
b00000000000000000000000000010011 N
b000000000000000010000 W
1Y
#105
0Y
#110
b00000000000000000000000000010100 E
b00000000000000000000000000010000 H
b000000000000000010100 W
1Y
#115
0Y
#120
b00000000000000000000000000011000 E
b00000000000000000000000000010100 H
b000000000000000011000 W
1Y
#125
0Y
#130
b00000000000000000000000000011100 E
b00000000000000000000000000011000 H
b000000000000000011100 W
1Y
#135
0Y
#140
b00000000000000000000000000100000 E
b00000000000000000000000000011100 H
b000000000000000100000 W
1Y
#145
0Y
#150
b00000000000000000000000000100100 E
b00000000000000000000000000100000 H
b000000000000000100100 W
1Y
#155
0Y
#160
b00000000000000000000000000101000 E
b00000000000000000000000000100100 H
b000000000000000101000 W
1Y
#165
0Y
#170
b00000000000000000000000000101100 E
b00000000000000000000000000101000 H
b000000000000000101100 W
1Y
#175
0Y
#180
b00000000000000000000000000110000 E
b00000000000000000000000000101100 H
b000000000000000110000 W
1Y
#185
0Y
#190
b00000000000000000000000000110100 E
b00000000000000000000000000110000 H
b000000000000000110100 W
1Y
#195
0Y
#200
b00000000000000000000000000111000 E
b00000000000000000000000000110100 H
b000000000000000111000 W
1Y
#205
0Y
#210
b00000000000000000000000000111100 E
b00000000000000000000000000111000 H
b000000000000000111100 W
1Y
#215
0Y
#220
b00000000000000000000000001000000 E
b00000000000000000000000000111100 H
b000000000000001000000 W
1Y
#225
0Y
#230
b00000000000000000000000001000100 E
b00000000000000000000000001000000 H
b000000000000001000100 W
1Y
#235
0Y
#240
b00000000000000000000000001001000 E
b00000000000000000000000001000100 H
b000000000000001001000 W
1Y
#245
0Y
#250
b00000000000000000000000001001100 E
b00000000000000000000000001001000 H
b000000000000001001100 W
1Y
