week0/mul1/wave.vcd
$version Generated by VerilatedVcd $end
$date Sun Feb 26 18:01:14 2023
 $end
$timescale  10s $end

 $scope module top $end
  $var wire 32 8 a_i [31:0] $end
  $var wire 32 9 b_i [31:0] $end
  $var wire  1 6 clk_i $end
  $var wire  1 ; ready_o $end
  $var wire  1 : req_i $end
  $var wire 32 < result_o [31:0] $end
  $var wire  1 7 rst_i $end
  $scope module mul $end
   $var wire  2 + S [1:0] $end
   $var wire  2 B S_CALC [1:0] $end
   $var wire  2 C S_DONE [1:0] $end
   $var wire  2 A S_IDLE [1:0] $end
   $var wire  2 ? S_nxt [1:0] $end
   $var wire 32 @ XLEN [31:0] $end
   $var wire 32 8 a_i [31:0] $end
   $var wire 33 - adder_opa [32:0] $end
   $var wire 33 / adder_opb [32:0] $end
   $var wire 33 1 adder_tmp [32:0] $end
   $var wire 32 9 b_i [31:0] $end
   $var wire  1 6 clk_i $end
   $var wire  6 ( cnt [5:0] $end
   $var wire  1 = is_a_zero $end
   $var wire  1 > is_b_zero $end
   $var wire  1 # is_calc_done $end
   $var wire  1 , mul_add $end
   $var wire 32 * mulh [31:0] $end
   $var wire 32 ) mull [31:0] $end
   $var wire 32 8 op_a [31:0] $end
   $var wire 32 9 op_b [31:0] $end
   $var wire  1 ; ready_o $end
   $var wire 32 $ reg32 [31:0] $end
   $var wire  1 : req_i $end
   $var wire 65 % result [64:0] $end
   $var wire 32 < result_o [31:0] $end
   $var wire 65 3 result_tmp [64:0] $end
   $var wire  1 7 rst_i $end
  $upscope $end
 $upscope $end
$enddefinitions $end


#5
1#
b00000000000000000000000000000000 $
b00000000000000000000000000000000000000000000000000000000000000000 %
b000000 (
b00000000000000000000000000000000 )
b00000000000000000000000000000000 *
b00 +
0,
b000000000000000000000000000000000 -
b000000000000000000000000000000000 /
b000000000000000000000000000000000 1
b00000000000000000000000000000000000000000000000000000000000000000 3
16
17
b00000000000000000000000000000000 8
b00000000000000000000000000000000 9
0:
0;
b00000000000000000000000000000000 <
1=
1>
b10 ?
b00000000000000000000000000100000 @
b00 A
b01 B
b10 C
#10
06
#15
16
#20
06
#25
16
#30
06
#35
16
#40
06
#45
16
#50
06
#55
0#
b00000000000000000000000001110101 $
b00000000000000000000000000000000000000000000000000000000010010111 %
b011111 (
b00000000000000000000000010010111 )
b01 +
1,
b000000000000000000000000001110101 -
b000000000000000000000000001110101 1
b00000000000000000000000000111010100000000000000000000000010010111 3
16
07
b00000000000000000000000001110101 8
b00000000000000000000000010010111 9
1:
0=
0>
b01 ?
#60
06
#65
b00000000000000000000000000011101010000000000000000000000001001011 %
b011110 (
b10000000000000000000000001001011 )
b00000000000000000000000000111010 *
b000000000000000000000000000111010 /
b000000000000000000000000010101111 1
b00000000000000000000000001010111110000000000000000000000001001011 3
16
#70
06
#75
b00000000000000000000000000101011111000000000000000000000000100101 %
b011101 (
b11000000000000000000000000100101 )
b00000000000000000000000001010111 *
b000000000000000000000000001010111 /
b000000000000000000000000011001100 1
b00000000000000000000000001100110011000000000000000000000000100101 3
16
#80
06
#85
b00000000000000000000000000110011001100000000000000000000000010010 %
b011100 (
b01100000000000000000000000010010 )
b00000000000000000000000001100110 *
0,
b000000000000000000000000001100110 /
b000000000000000000000000011011011 1
b00000000000000000000000001101101101100000000000000000000000010010 3
16
#90
06
#95
b00000000000000000000000000011001100110000000000000000000000001001 %
b011011 (
b00110000000000000000000000001001 )
b00000000000000000000000000110011 *
1,
b000000000000000000000000000110011 /
b000000000000000000000000010101000 1
b00000000000000000000000001010100000110000000000000000000000001001 3
16
#100
06
#105
b00000000000000000000000000101010000011000000000000000000000000100 %
b011010 (
b00011000000000000000000000000100 )
b00000000000000000000000001010100 *
0,
b000000000000000000000000001010100 /
b000000000000000000000000011001001 1
b00000000000000000000000001100100100011000000000000000000000000100 3
16
#110
06
#115
b00000000000000000000000000010101000001100000000000000000000000010 %
b011001 (
b00001100000000000000000000000010 )
b00000000000000000000000000101010 *
b000000000000000000000000000101010 /
b000000000000000000000000010011111 1
b00000000000000000000000001001111100001100000000000000000000000010 3
16
#120
06
#125
b00000000000000000000000000001010100000110000000000000000000000001 %
b011000 (
b00000110000000000000000000000001 )
b00000000000000000000000000010101 *
1,
b000000000000000000000000000010101 /
b000000000000000000000000010001010 1
b00000000000000000000000001000101000000110000000000000000000000001 3
16
#130
06
#135
b00000000000000000000000000100010100000011000000000000000000000000 %
b010111 (
b00000011000000000000000000000000 )
b00000000000000000000000001000101 *
0,
b000000000000000000000000001000101 /
b000000000000000000000000010111010 1
b00000000000000000000000001011101000000011000000000000000000000000 3
16
#140
06
#145
b00000000000000000000000000010001010000001100000000000000000000000 %
b010110 (
b10000001100000000000000000000000 )
b00000000000000000000000000100010 *
b000000000000000000000000000100010 /
b000000000000000000000000010010111 1
b00000000000000000000000001001011110000001100000000000000000000000 3
16
#150
06
#155
b00000000000000000000000000001000101000000110000000000000000000000 %
b010101 (
b01000000110000000000000000000000 )
b00000000000000000000000000010001 *
b000000000000000000000000000010001 /
b000000000000000000000000010000110 1
b00000000000000000000000001000011001000000110000000000000000000000 3
16
#160
06
#165
b00000000000000000000000000000100010100000011000000000000000000000 %
b010100 (
b10100000011000000000000000000000 )
b00000000000000000000000000001000 *
b000000000000000000000000000001000 /
b000000000000000000000000001111101 1
b00000000000000000000000000111110110100000011000000000000000000000 3
16
#170
06
#175
b00000000000000000000000000000010001010000001100000000000000000000 %
b010011 (
b01010000001100000000000000000000 )
b00000000000000000000000000000100 *
b000000000000000000000000000000100 /
b000000000000000000000000001111001 1
b00000000000000000000000000111100101010000001100000000000000000000 3
16
#180
06
#185
b00000000000000000000000000000001000101000000110000000000000000000 %
b010010 (
b00101000000110000000000000000000 )
b00000000000000000000000000000010 *
b000000000000000000000000000000010 /
b000000000000000000000000001110111 1
b00000000000000000000000000111011100101000000110000000000000000000 3
16
#190
06
#195
b00000000000000000000000000000000100010100000011000000000000000000 %
b010001 (
b00010100000011000000000000000000 )
b00000000000000000000000000000001 *
b000000000000000000000000000000001 /
b000000000000000000000000001110110 1
b00000000000000000000000000111011000010100000011000000000000000000 3
16
#200
06
#205
b00000000000000000000000000000000010001010000001100000000000000000 %
b010000 (
b10001010000001100000000000000000 )
b00000000000000000000000000000000 *
b000000000000000000000000000000000 /
b000000000000000000000000001110101 1
b00000000000000000000000000111010110001010000001100000000000000000 3
16
#210
06
#215
b00000000000000000000000000000000001000101000000110000000000000000 %
b001111 (
b01000101000000110000000000000000 )
b00000000000000000000000000111010101000101000000110000000000000000 3
16
#220
06
#225
b00000000000000000000000000000000000100010100000011000000000000000 %
b001110 (
b00100010100000011000000000000000 )
b00000000000000000000000000111010100100010100000011000000000000000 3
16
#230
06
#235
b00000000000000000000000000000000000010001010000001100000000000000 %
b001101 (
b00010001010000001100000000000000 )
b00000000000000000000000000111010100010001010000001100000000000000 3
16
#240
06
#245
b00000000000000000000000000000000000001000101000000110000000000000 %
b001100 (
b00001000101000000110000000000000 )
b00000000000000000000000000111010100001000101000000110000000000000 3
16
#250
06
#255
b00000000000000000000000000000000000000100010100000011000000000000 %
b001011 (
b00000100010100000011000000000000 )
b00000000000000000000000000111010100000100010100000011000000000000 3
16
#260
06
#265
b00000000000000000000000000000000000000010001010000001100000000000 %
b001010 (
b00000010001010000001100000000000 )
b00000000000000000000000000111010100000010001010000001100000000000 3
16
#270
06
#275
b00000000000000000000000000000000000000001000101000000110000000000 %
b001001 (
b00000001000101000000110000000000 )
b00000000000000000000000000111010100000001000101000000110000000000 3
16
#280
06
#285
b00000000000000000000000000000000000000000100010100000011000000000 %
b001000 (
b00000000100010100000011000000000 )
b00000000000000000000000000111010100000000100010100000011000000000 3
16
#290
06
#295
b00000000000000000000000000000000000000000010001010000001100000000 %
b000111 (
b00000000010001010000001100000000 )
b00000000000000000000000000111010100000000010001010000001100000000 3
16
#300
06
#305
b00000000000000000000000000000000000000000001000101000000110000000 %
b000110 (
b00000000001000101000000110000000 )
b00000000000000000000000000111010100000000001000101000000110000000 3
16
#310
06
#315
b00000000000000000000000000000000000000000000100010100000011000000 %
b000101 (
b00000000000100010100000011000000 )
b00000000000000000000000000111010100000000000100010100000011000000 3
16
#320
06
#325
b00000000000000000000000000000000000000000000010001010000001100000 %
b000100 (
b00000000000010001010000001100000 )
b00000000000000000000000000111010100000000000010001010000001100000 3
16
#330
06
#335
b00000000000000000000000000000000000000000000001000101000000110000 %
b000011 (
b00000000000001000101000000110000 )
b00000000000000000000000000111010100000000000001000101000000110000 3
16
#340
06
#345
b00000000000000000000000000000000000000000000000100010100000011000 %
b000010 (
b00000000000000100010100000011000 )
b00000000000000000000000000111010100000000000000100010100000011000 3
16
#350
06
#355
b00000000000000000000000000000000000000000000000010001010000001100 %
b000001 (
b00000000000000010001010000001100 )
b00000000000000000000000000111010100000000000000010001010000001100 3
16
#360
06
#365
1#
b00000000000000000000000000000000000000000000000001000101000000110 %
b000000 (
b00000000000000001000101000000110 )
b00000000000000000000000000111010100000000000000001000101000000110 3
16
b10 ?
#370
06
#375
0#
b00000000000000000000000000000000000000000000000000100010100000011 %
b111111 (
b00000000000000000100010100000011 )
b10 +
1,
b00000000000000000000000000111010100000000000000000100010100000011 3
16
b00 ?
#380
06
#385
b00 +
16
1;
b00000000000000000100010100000011 <
b01 ?
#390
06
#395
16
0:
0;
#400
06
#405
b00000000000000000000000000011110 $
b00000000000000000000000000000000000000000000000000000000000100000 %
b011111 (
b00000000000000000000000000100000 )
b01 +
0,
b000000000000000000000000000011110 -
b000000000000000000000000000011110 1
b00000000000000000000000000001111000000000000000000000000000100000 3
16
b00000000000000000000000000011110 8
b00000000000000000000000000100000 9
1:
#410
06
#415
b00000000000000000000000000000000000000000000000000000000000010000 %
b011110 (
b00000000000000000000000000010000 )
b00000000000000000000000000001111000000000000000000000000000010000 3
16
#420
06
#425
b00000000000000000000000000000000000000000000000000000000000001000 %
b011101 (
b00000000000000000000000000001000 )
b00000000000000000000000000001111000000000000000000000000000001000 3
16
#430
06
#435
b00000000000000000000000000000000000000000000000000000000000000100 %
b011100 (
b00000000000000000000000000000100 )
b00000000000000000000000000001111000000000000000000000000000000100 3
16
#440
06
#445
b00000000000000000000000000000000000000000000000000000000000000010 %
b011011 (
b00000000000000000000000000000010 )
b00000000000000000000000000001111000000000000000000000000000000010 3
16
#450
06
#455
b00000000000000000000000000000000000000000000000000000000000000001 %
b011010 (
b00000000000000000000000000000001 )
1,
b00000000000000000000000000001111000000000000000000000000000000001 3
16
#460
06
#465
b00000000000000000000000000000111100000000000000000000000000000000 %
b011001 (
b00000000000000000000000000000000 )
b00000000000000000000000000001111 *
0,
b000000000000000000000000000001111 /
b000000000000000000000000000101101 1
b00000000000000000000000000010110100000000000000000000000000000000 3
16
#470
06
#475
b00000000000000000000000000000011110000000000000000000000000000000 %
b011000 (
b10000000000000000000000000000000 )
b00000000000000000000000000000111 *
b000000000000000000000000000000111 /
b000000000000000000000000000100101 1
b00000000000000000000000000010010110000000000000000000000000000000 3
16
#480
06
#485
b00000000000000000000000000000001111000000000000000000000000000000 %
b010111 (
b11000000000000000000000000000000 )
b00000000000000000000000000000011 *
b000000000000000000000000000000011 /
b000000000000000000000000000100001 1
b00000000000000000000000000010000111000000000000000000000000000000 3
16
#490
06
#495
b00000000000000000000000000000000111100000000000000000000000000000 %
b010110 (
b11100000000000000000000000000000 )
b00000000000000000000000000000001 *
b000000000000000000000000000000001 /
b000000000000000000000000000011111 1
b00000000000000000000000000001111111100000000000000000000000000000 3
16
#500
06
#505
b00000000000000000000000000000000011110000000000000000000000000000 %
b010101 (
b11110000000000000000000000000000 )
b00000000000000000000000000000000 *
b000000000000000000000000000000000 /
b000000000000000000000000000011110 1
b00000000000000000000000000001111011110000000000000000000000000000 3
16
#510
06
#515
b00000000000000000000000000000000001111000000000000000000000000000 %
b010100 (
b01111000000000000000000000000000 )
b00000000000000000000000000001111001111000000000000000000000000000 3
16
#520
06
#525
b00000000000000000000000000000000000111100000000000000000000000000 %
b010011 (
b00111100000000000000000000000000 )
b00000000000000000000000000001111000111100000000000000000000000000 3
16
#530
06
#535
b00000000000000000000000000000000000011110000000000000000000000000 %
b010010 (
b00011110000000000000000000000000 )
b00000000000000000000000000001111000011110000000000000000000000000 3
16
#540
06
#545
b00000000000000000000000000000000000001111000000000000000000000000 %
b010001 (
b00001111000000000000000000000000 )
b00000000000000000000000000001111000001111000000000000000000000000 3
16
#550
06
#555
b00000000000000000000000000000000000000111100000000000000000000000 %
b010000 (
b00000111100000000000000000000000 )
b00000000000000000000000000001111000000111100000000000000000000000 3
16
#560
06
#565
b00000000000000000000000000000000000000011110000000000000000000000 %
b001111 (
b00000011110000000000000000000000 )
b00000000000000000000000000001111000000011110000000000000000000000 3
16
#570
06
#575
b00000000000000000000000000000000000000001111000000000000000000000 %
b001110 (
b00000001111000000000000000000000 )
b00000000000000000000000000001111000000001111000000000000000000000 3
16
#580
06
#585
b00000000000000000000000000000000000000000111100000000000000000000 %
b001101 (
b00000000111100000000000000000000 )
b00000000000000000000000000001111000000000111100000000000000000000 3
16
#590
06
#595
b00000000000000000000000000000000000000000011110000000000000000000 %
b001100 (
b00000000011110000000000000000000 )
b00000000000000000000000000001111000000000011110000000000000000000 3
16
#600
06
#605
b00000000000000000000000000000000000000000001111000000000000000000 %
b001011 (
b00000000001111000000000000000000 )
b00000000000000000000000000001111000000000001111000000000000000000 3
16
#610
06
#615
b00000000000000000000000000000000000000000000111100000000000000000 %
b001010 (
b00000000000111100000000000000000 )
b00000000000000000000000000001111000000000000111100000000000000000 3
16
#620
06
#625
b00000000000000000000000000000000000000000000011110000000000000000 %
b001001 (
b00000000000011110000000000000000 )
b00000000000000000000000000001111000000000000011110000000000000000 3
16
#630
06
#635
b00000000000000000000000000000000000000000000001111000000000000000 %
b001000 (
b00000000000001111000000000000000 )
b00000000000000000000000000001111000000000000001111000000000000000 3
16
#640
06
#645
b00000000000000000000000000000000000000000000000111100000000000000 %
b000111 (
b00000000000000111100000000000000 )
b00000000000000000000000000001111000000000000000111100000000000000 3
16
#650
06
#655
b00000000000000000000000000000000000000000000000011110000000000000 %
b000110 (
b00000000000000011110000000000000 )
b00000000000000000000000000001111000000000000000011110000000000000 3
16
#660
06
#665
b00000000000000000000000000000000000000000000000001111000000000000 %
b000101 (
b00000000000000001111000000000000 )
b00000000000000000000000000001111000000000000000001111000000000000 3
16
#670
06
#675
b00000000000000000000000000000000000000000000000000111100000000000 %
b000100 (
b00000000000000000111100000000000 )
b00000000000000000000000000001111000000000000000000111100000000000 3
16
#680
06
#685
b00000000000000000000000000000000000000000000000000011110000000000 %
b000011 (
b00000000000000000011110000000000 )
b00000000000000000000000000001111000000000000000000011110000000000 3
16
#690
06
#695
b00000000000000000000000000000000000000000000000000001111000000000 %
b000010 (
b00000000000000000001111000000000 )
b00000000000000000000000000001111000000000000000000001111000000000 3
16
#700
06
#705
b00000000000000000000000000000000000000000000000000000111100000000 %
b000001 (
b00000000000000000000111100000000 )
b00000000000000000000000000001111000000000000000000000111100000000 3
16
#710
06
#715
1#
b00000000000000000000000000000000000000000000000000000011110000000 %
b000000 (
b00000000000000000000011110000000 )
b00000000000000000000000000001111000000000000000000000011110000000 3
16
b10 ?
#720
06
#725
0#
b00000000000000000000000000000000000000000000000000000001111000000 %
b111111 (
b00000000000000000000001111000000 )
b10 +
b00000000000000000000000000001111000000000000000000000001111000000 3
16
b00 ?
#730
06
#735
b00 +
16
1;
b00000000000000000000001111000000 <
b01 ?
#740
06
#745
16
0:
0;
#750
06
#755
b00000000000000000000000010010111 $
b00000000000000000000000000000000000000000000000000000000001000011 %
b011111 (
b00000000000000000000000001000011 )
b01 +
1,
b000000000000000000000000010010111 -
b000000000000000000000000010010111 1
b00000000000000000000000001001011100000000000000000000000001000011 3
16
b00000000000000000000000010010111 8
b00000000000000000000000001000011 9
1:
#760
06
#765
b00000000000000000000000000100101110000000000000000000000000100001 %
b011110 (
b10000000000000000000000000100001 )
b00000000000000000000000001001011 *
b000000000000000000000000001001011 /
b000000000000000000000000011100010 1
b00000000000000000000000001110001010000000000000000000000000100001 3
16
#770
06
#775
b00000000000000000000000000111000101000000000000000000000000010000 %
b011101 (
b01000000000000000000000000010000 )
b00000000000000000000000001110001 *
0,
b000000000000000000000000001110001 /
b000000000000000000000000100001000 1
b00000000000000000000000010000100001000000000000000000000000010000 3
16
#780
06
#785
b00000000000000000000000000011100010100000000000000000000000001000 %
b011100 (
b10100000000000000000000000001000 )
b00000000000000000000000000111000 *
b000000000000000000000000000111000 /
b000000000000000000000000011001111 1
b00000000000000000000000001100111110100000000000000000000000001000 3
16
#790
06
#795
b00000000000000000000000000001110001010000000000000000000000000100 %
b011011 (
b01010000000000000000000000000100 )
b00000000000000000000000000011100 *
b000000000000000000000000000011100 /
b000000000000000000000000010110011 1
b00000000000000000000000001011001101010000000000000000000000000100 3
16
#800
06
#805
b00000000000000000000000000000111000101000000000000000000000000010 %
b011010 (
b00101000000000000000000000000010 )
b00000000000000000000000000001110 *
b000000000000000000000000000001110 /
b000000000000000000000000010100101 1
b00000000000000000000000001010010100101000000000000000000000000010 3
16
#810
06
#815
b00000000000000000000000000000011100010100000000000000000000000001 %
b011001 (
b00010100000000000000000000000001 )
b00000000000000000000000000000111 *
1,
b000000000000000000000000000000111 /
b000000000000000000000000010011110 1
b00000000000000000000000001001111000010100000000000000000000000001 3
16
#820
06
#825
b00000000000000000000000000100111100001010000000000000000000000000 %
b011000 (
b00001010000000000000000000000000 )
b00000000000000000000000001001111 *
0,
b000000000000000000000000001001111 /
b000000000000000000000000011100110 1
b00000000000000000000000001110011000001010000000000000000000000000 3
16
#830
06
#835
b00000000000000000000000000010011110000101000000000000000000000000 %
b010111 (
b10000101000000000000000000000000 )
b00000000000000000000000000100111 *
b000000000000000000000000000100111 /
b000000000000000000000000010111110 1
b00000000000000000000000001011111010000101000000000000000000000000 3
16
#840
06
#845
b00000000000000000000000000001001111000010100000000000000000000000 %
b010110 (
b11000010100000000000000000000000 )
b00000000000000000000000000010011 *
b000000000000000000000000000010011 /
b000000000000000000000000010101010 1
b00000000000000000000000001010101011000010100000000000000000000000 3
16
#850
06
#855
b00000000000000000000000000000100111100001010000000000000000000000 %
b010101 (
b11100001010000000000000000000000 )
b00000000000000000000000000001001 *
b000000000000000000000000000001001 /
b000000000000000000000000010100000 1
b00000000000000000000000001010000011100001010000000000000000000000 3
16
#860
06
#865
b00000000000000000000000000000010011110000101000000000000000000000 %
b010100 (
b11110000101000000000000000000000 )
b00000000000000000000000000000100 *
b000000000000000000000000000000100 /
b000000000000000000000000010011011 1
b00000000000000000000000001001101111110000101000000000000000000000 3
16
#870
06
#875
b00000000000000000000000000000001001111000010100000000000000000000 %
b010011 (
b01111000010100000000000000000000 )
b00000000000000000000000000000010 *
b000000000000000000000000000000010 /
b000000000000000000000000010011001 1
b00000000000000000000000001001100101111000010100000000000000000000 3
16
#880
06
#885
b00000000000000000000000000000000100111100001010000000000000000000 %
b010010 (
b00111100001010000000000000000000 )
b00000000000000000000000000000001 *
b000000000000000000000000000000001 /
b000000000000000000000000010011000 1
b00000000000000000000000001001100000111100001010000000000000000000 3
16
#890
06
#895
b00000000000000000000000000000000010011110000101000000000000000000 %
b010001 (
b10011110000101000000000000000000 )
b00000000000000000000000000000000 *
b000000000000000000000000000000000 /
b000000000000000000000000010010111 1
b00000000000000000000000001001011110011110000101000000000000000000 3
16
#900
06
#905
b00000000000000000000000000000000001001111000010100000000000000000 %
b010000 (
b01001111000010100000000000000000 )
b00000000000000000000000001001011101001111000010100000000000000000 3
16
#910
06
#915
b00000000000000000000000000000000000100111100001010000000000000000 %
b001111 (
b00100111100001010000000000000000 )
b00000000000000000000000001001011100100111100001010000000000000000 3
16
#920
06
#925
b00000000000000000000000000000000000010011110000101000000000000000 %
b001110 (
b00010011110000101000000000000000 )
b00000000000000000000000001001011100010011110000101000000000000000 3
16
#930
06
#935
b00000000000000000000000000000000000001001111000010100000000000000 %
b001101 (
b00001001111000010100000000000000 )
b00000000000000000000000001001011100001001111000010100000000000000 3
16
#940
06
#945
b00000000000000000000000000000000000000100111100001010000000000000 %
b001100 (
b00000100111100001010000000000000 )
b00000000000000000000000001001011100000100111100001010000000000000 3
16
#950
06
#955
b00000000000000000000000000000000000000010011110000101000000000000 %
b001011 (
b00000010011110000101000000000000 )
b00000000000000000000000001001011100000010011110000101000000000000 3
16
#960
06
#965
b00000000000000000000000000000000000000001001111000010100000000000 %
b001010 (
b00000001001111000010100000000000 )
b00000000000000000000000001001011100000001001111000010100000000000 3
16
#970
06
#975
b00000000000000000000000000000000000000000100111100001010000000000 %
b001001 (
b00000000100111100001010000000000 )
b00000000000000000000000001001011100000000100111100001010000000000 3
16
#980
06
#985
b00000000000000000000000000000000000000000010011110000101000000000 %
b001000 (
b00000000010011110000101000000000 )
b00000000000000000000000001001011100000000010011110000101000000000 3
16
#990
06
#995
b00000000000000000000000000000000000000000001001111000010100000000 %
b000111 (
b00000000001001111000010100000000 )
b00000000000000000000000001001011100000000001001111000010100000000 3
16
#1000
06
#1005
b00000000000000000000000000000000000000000000100111100001010000000 %
b000110 (
b00000000000100111100001010000000 )
b00000000000000000000000001001011100000000000100111100001010000000 3
16
#1010
06
#1015
b00000000000000000000000000000000000000000000010011110000101000000 %
b000101 (
b00000000000010011110000101000000 )
b00000000000000000000000001001011100000000000010011110000101000000 3
16
#1020
06
#1025
b00000000000000000000000000000000000000000000001001111000010100000 %
b000100 (
b00000000000001001111000010100000 )
b00000000000000000000000001001011100000000000001001111000010100000 3
16
#1030
06
#1035
b00000000000000000000000000000000000000000000000100111100001010000 %
b000011 (
b00000000000000100111100001010000 )
b00000000000000000000000001001011100000000000000100111100001010000 3
16
#1040
06
#1045
b00000000000000000000000000000000000000000000000010011110000101000 %
b000010 (
b00000000000000010011110000101000 )
b00000000000000000000000001001011100000000000000010011110000101000 3
16
#1050
06
#1055
b00000000000000000000000000000000000000000000000001001111000010100 %
b000001 (
b00000000000000001001111000010100 )
b00000000000000000000000001001011100000000000000001001111000010100 3
16
#1060
06
#1065
1#
b00000000000000000000000000000000000000000000000000100111100001010 %
b000000 (
b00000000000000000100111100001010 )
b00000000000000000000000001001011100000000000000000100111100001010 3
16
b10 ?
#1070
06
#1075
0#
b00000000000000000000000000000000000000000000000000010011110000101 %
b111111 (
b00000000000000000010011110000101 )
b10 +
1,
b00000000000000000000000001001011100000000000000000010011110000101 3
16
b00 ?
#1080
06
#1085
b00 +
16
1;
b00000000000000000010011110000101 <
b01 ?
#1090
06
#1095
16
0:
0;
#1100
06
#1105
b00000000000000000000000000001100 $
b00000000000000000000000000000000000000000000000000000000000010011 %
b011111 (
b00000000000000000000000000010011 )
b01 +
b000000000000000000000000000001100 -
b000000000000000000000000000001100 1
b00000000000000000000000000000110000000000000000000000000000010011 3
16
b00000000000000000000000000001100 8
b00000000000000000000000000010011 9
1:
#1110
06
#1115
b00000000000000000000000000000011000000000000000000000000000001001 %
b011110 (
b00000000000000000000000000001001 )
b00000000000000000000000000000110 *
b000000000000000000000000000000110 /
b000000000000000000000000000010010 1
b00000000000000000000000000001001000000000000000000000000000001001 3
16
#1120
06
#1125
b00000000000000000000000000000100100000000000000000000000000000100 %
b011101 (
b00000000000000000000000000000100 )
b00000000000000000000000000001001 *
0,
b000000000000000000000000000001001 /
b000000000000000000000000000010101 1
b00000000000000000000000000001010100000000000000000000000000000100 3
16
#1130
06
#1135
b00000000000000000000000000000010010000000000000000000000000000010 %
b011100 (
b10000000000000000000000000000010 )
b00000000000000000000000000000100 *
b000000000000000000000000000000100 /
b000000000000000000000000000010000 1
b00000000000000000000000000001000010000000000000000000000000000010 3
16
#1140
06
#1145
b00000000000000000000000000000001001000000000000000000000000000001 %
b011011 (
b01000000000000000000000000000001 )
b00000000000000000000000000000010 *
1,
b000000000000000000000000000000010 /
b000000000000000000000000000001110 1
b00000000000000000000000000000111001000000000000000000000000000001 3
16
#1150
06
#1155
b00000000000000000000000000000011100100000000000000000000000000000 %
b011010 (
b00100000000000000000000000000000 )
b00000000000000000000000000000111 *
0,
b000000000000000000000000000000111 /
b000000000000000000000000000010011 1
b00000000000000000000000000001001100100000000000000000000000000000 3
16
#1160
06
#1165
b00000000000000000000000000000001110010000000000000000000000000000 %
b011001 (
b10010000000000000000000000000000 )
b00000000000000000000000000000011 *
b000000000000000000000000000000011 /
b000000000000000000000000000001111 1
b00000000000000000000000000000111110010000000000000000000000000000 3
16
#1170
06
#1175
b00000000000000000000000000000000111001000000000000000000000000000 %
b011000 (
b11001000000000000000000000000000 )
b00000000000000000000000000000001 *
b000000000000000000000000000000001 /
b000000000000000000000000000001101 1
b00000000000000000000000000000110111001000000000000000000000000000 3
16
#1180
06
#1185
b00000000000000000000000000000000011100100000000000000000000000000 %
b010111 (
b11100100000000000000000000000000 )
b00000000000000000000000000000000 *
b000000000000000000000000000000000 /
b000000000000000000000000000001100 1
b00000000000000000000000000000110011100100000000000000000000000000 3
16
#1190
06
#1195
b00000000000000000000000000000000001110010000000000000000000000000 %
b010110 (
b01110010000000000000000000000000 )
b00000000000000000000000000000110001110010000000000000000000000000 3
16
#1200
06
#1205
b00000000000000000000000000000000000111001000000000000000000000000 %
b010101 (
b00111001000000000000000000000000 )
b00000000000000000000000000000110000111001000000000000000000000000 3
16
#1210
06
#1215
b00000000000000000000000000000000000011100100000000000000000000000 %
b010100 (
b00011100100000000000000000000000 )
b00000000000000000000000000000110000011100100000000000000000000000 3
16
#1220
06
#1225
b00000000000000000000000000000000000001110010000000000000000000000 %
b010011 (
b00001110010000000000000000000000 )
b00000000000000000000000000000110000001110010000000000000000000000 3
16
#1230
06
#1235
b00000000000000000000000000000000000000111001000000000000000000000 %
b010010 (
b00000111001000000000000000000000 )
b00000000000000000000000000000110000000111001000000000000000000000 3
16
#1240
06
#1245
b00000000000000000000000000000000000000011100100000000000000000000 %
b010001 (
b00000011100100000000000000000000 )
b00000000000000000000000000000110000000011100100000000000000000000 3
16
#1250
06
#1255
b00000000000000000000000000000000000000001110010000000000000000000 %
b010000 (
b00000001110010000000000000000000 )
b00000000000000000000000000000110000000001110010000000000000000000 3
16
#1260
06
#1265
b00000000000000000000000000000000000000000111001000000000000000000 %
b001111 (
b00000000111001000000000000000000 )
b00000000000000000000000000000110000000000111001000000000000000000 3
16
#1270
06
#1275
b00000000000000000000000000000000000000000011100100000000000000000 %
b001110 (
b00000000011100100000000000000000 )
b00000000000000000000000000000110000000000011100100000000000000000 3
16
#1280
06
#1285
b00000000000000000000000000000000000000000001110010000000000000000 %
b001101 (
b00000000001110010000000000000000 )
b00000000000000000000000000000110000000000001110010000000000000000 3
16
#1290
06
#1295
b00000000000000000000000000000000000000000000111001000000000000000 %
b001100 (
b00000000000111001000000000000000 )
b00000000000000000000000000000110000000000000111001000000000000000 3
16
#1300
06
#1305
b00000000000000000000000000000000000000000000011100100000000000000 %
b001011 (
b00000000000011100100000000000000 )
b00000000000000000000000000000110000000000000011100100000000000000 3
16
#1310
06
#1315
b00000000000000000000000000000000000000000000001110010000000000000 %
b001010 (
b00000000000001110010000000000000 )
b00000000000000000000000000000110000000000000001110010000000000000 3
16
#1320
06
#1325
b00000000000000000000000000000000000000000000000111001000000000000 %
b001001 (
b00000000000000111001000000000000 )
b00000000000000000000000000000110000000000000000111001000000000000 3
16
#1330
06
#1335
b00000000000000000000000000000000000000000000000011100100000000000 %
b001000 (
b00000000000000011100100000000000 )
b00000000000000000000000000000110000000000000000011100100000000000 3
16
#1340
06
#1345
b00000000000000000000000000000000000000000000000001110010000000000 %
b000111 (
b00000000000000001110010000000000 )
b00000000000000000000000000000110000000000000000001110010000000000 3
16
#1350
06
#1355
b00000000000000000000000000000000000000000000000000111001000000000 %
b000110 (
b00000000000000000111001000000000 )
b00000000000000000000000000000110000000000000000000111001000000000 3
16
#1360
06
#1365
b00000000000000000000000000000000000000000000000000011100100000000 %
b000101 (
b00000000000000000011100100000000 )
b00000000000000000000000000000110000000000000000000011100100000000 3
16
#1370
06
#1375
b00000000000000000000000000000000000000000000000000001110010000000 %
b000100 (
b00000000000000000001110010000000 )
b00000000000000000000000000000110000000000000000000001110010000000 3
16
#1380
06
#1385
b00000000000000000000000000000000000000000000000000000111001000000 %
b000011 (
b00000000000000000000111001000000 )
b00000000000000000000000000000110000000000000000000000111001000000 3
16
#1390
06
#1395
b00000000000000000000000000000000000000000000000000000011100100000 %
b000010 (
b00000000000000000000011100100000 )
b00000000000000000000000000000110000000000000000000000011100100000 3
16
#1400
06
#1405
b00000000000000000000000000000000000000000000000000000001110010000 %
b000001 (
b00000000000000000000001110010000 )
b00000000000000000000000000000110000000000000000000000001110010000 3
16
#1410
06
#1415
1#
b00000000000000000000000000000000000000000000000000000000111001000 %
b000000 (
b00000000000000000000000111001000 )
b00000000000000000000000000000110000000000000000000000000111001000 3
16
b10 ?
#1420
06
#1425
0#
b00000000000000000000000000000000000000000000000000000000011100100 %
b111111 (
b00000000000000000000000011100100 )
b10 +
b00000000000000000000000000000110000000000000000000000000011100100 3
16
b00 ?
#1430
06
#1435
b00 +
16
1;
b00000000000000000000000011100100 <
b01 ?
#1440
06
#1445
16
0:
0;
#1450
06
#1455
b00000000000000000000000001011100 $
b00000000000000000000000000000000000000000000000000000000001000000 %
b011111 (
b00000000000000000000000001000000 )
b01 +
b000000000000000000000000001011100 -
b000000000000000000000000001011100 1
b00000000000000000000000000101110000000000000000000000000001000000 3
16
b00000000000000000000000001011100 8
b00000000000000000000000001000000 9
1:
#1460
06
