week0/alu4/wave.vcd
$version Generated by VerilatedVcd $end
$date Sun Feb 19 17:58:33 2023
 $end
$timescale  10s $end

 $scope module top $end
  $var wire  4 0 a [3:0] $end
  $var wire  4 1 b [3:0] $end
  $var wire  1 2 c_in $end
  $var wire  1 5 c_out $end
  $var wire  2 3 op [1:0] $end
  $var wire  4 4 result [3:0] $end
  $scope module alu4 $end
   $var wire  4 0 a [3:0] $end
   $var wire  4 1 b [3:0] $end
   $var wire  1 # c1 $end
   $var wire  1 $ c2 $end
   $var wire  1 % c3 $end
   $var wire  1 2 c_in $end
   $var wire  1 5 c_out $end
   $var wire  2 3 op [1:0] $end
   $var wire  4 4 result [3:0] $end
   $scope module al0 $end
    $var wire  1 6 a $end
    $var wire  1 7 b $end
    $var wire  1 9 c1 $end
    $var wire  1 : c2 $end
    $var wire  1 ; c3 $end
    $var wire  1 2 c_in $end
    $var wire  1 # c_out $end
    $var wire  2 3 op [1:0] $end
    $var wire  1 8 result $end
    $scope module g4 $end
     $var wire  1 6 a $end
     $var wire  1 7 b $end
     $var wire  1 9 c1 $end
     $var wire  1 < c2 $end
     $var wire  1 2 c_in $end
     $var wire  1 # c_out $end
     $var wire  1 & s1 $end
     $var wire  1 ; sum $end
    $upscope $end
    $scope module g5 $end
     $var wire  1 9 a_i $end
     $var wire  1 : b_i $end
     $var wire  1 ; c_i $end
     $var wire  1 L d_i $end
     $var wire  1 8 q $end
     $var wire  1 8 q_o $end
     $var wire  2 3 sel_i [1:0] $end
    $upscope $end
   $upscope $end
   $scope module al1 $end
    $var wire  1 = a $end
    $var wire  1 > b $end
    $var wire  1 @ c1 $end
    $var wire  1 A c2 $end
    $var wire  1 ' c3 $end
    $var wire  1 # c_in $end
    $var wire  1 $ c_out $end
    $var wire  2 3 op [1:0] $end
    $var wire  1 ? result $end
    $scope module g4 $end
     $var wire  1 = a $end
     $var wire  1 > b $end
     $var wire  1 @ c1 $end
     $var wire  1 ) c2 $end
     $var wire  1 # c_in $end
     $var wire  1 $ c_out $end
     $var wire  1 ( s1 $end
     $var wire  1 ' sum $end
    $upscope $end
    $scope module g5 $end
     $var wire  1 @ a_i $end
     $var wire  1 A b_i $end
     $var wire  1 ' c_i $end
     $var wire  1 L d_i $end
     $var wire  1 ? q $end
     $var wire  1 ? q_o $end
     $var wire  2 3 sel_i [1:0] $end
    $upscope $end
   $upscope $end
   $scope module al2 $end
    $var wire  1 B a $end
    $var wire  1 C b $end
    $var wire  1 E c1 $end
    $var wire  1 F c2 $end
    $var wire  1 * c3 $end
    $var wire  1 $ c_in $end
    $var wire  1 % c_out $end
    $var wire  2 3 op [1:0] $end
    $var wire  1 D result $end
    $scope module g4 $end
     $var wire  1 B a $end
     $var wire  1 C b $end
     $var wire  1 E c1 $end
     $var wire  1 , c2 $end
     $var wire  1 $ c_in $end
     $var wire  1 % c_out $end
     $var wire  1 + s1 $end
     $var wire  1 * sum $end
    $upscope $end
    $scope module g5 $end
     $var wire  1 E a_i $end
     $var wire  1 F b_i $end
     $var wire  1 * c_i $end
     $var wire  1 L d_i $end
     $var wire  1 D q $end
     $var wire  1 D q_o $end
     $var wire  2 3 sel_i [1:0] $end
    $upscope $end
   $upscope $end
   $scope module al3 $end
    $var wire  1 G a $end
    $var wire  1 H b $end
    $var wire  1 J c1 $end
    $var wire  1 K c2 $end
    $var wire  1 - c3 $end
    $var wire  1 % c_in $end
    $var wire  1 5 c_out $end
    $var wire  2 3 op [1:0] $end
    $var wire  1 I result $end
    $scope module g4 $end
     $var wire  1 G a $end
     $var wire  1 H b $end
     $var wire  1 J c1 $end
     $var wire  1 / c2 $end
     $var wire  1 % c_in $end
     $var wire  1 5 c_out $end
     $var wire  1 . s1 $end
     $var wire  1 - sum $end
    $upscope $end
    $scope module g5 $end
     $var wire  1 J a_i $end
     $var wire  1 K b_i $end
     $var wire  1 - c_i $end
     $var wire  1 L d_i $end
     $var wire  1 I q $end
     $var wire  1 I q_o $end
     $var wire  2 3 sel_i [1:0] $end
    $upscope $end
   $upscope $end
  $upscope $end
 $upscope $end
$enddefinitions $end


#0
0#
1$
1%
1&
0'
0(
0)
1*
0+
0,
1-
0.
0/
b0111 0
b0110 1
02
b00 3
b0110 4
05
16
07
08
09
1:
1;
0<
1=
1>
1?
1@
1A
1B
1C
1D
1E
1F
0G
0H
0I
0J
0K
0L
#1
1#
0%
0&
1(
1)
1.
b1001 0
b0011 1
b0001 4
17
18
19
0;
0=
0?
0@
0B
0C
0D
0E
0F
1G
1K
#2
1%
0*
1+
1,
0-
1/
b0001 0
b1111 1
15
1C
1F
0G
1H
#3
0#
0$
0%
1'
0)
1*
0,
0.
0/
b1010 0
b1100 1
b1000 4
06
07
08
09
0:
1=
0>
1G
1I
1J
#4
1#
0(
b1001 0
b1101 1
b1001 4
16
17
18
19
1:
0=
0A
#5
0#
1$
1&
0'
0+
b1010 0
b1011 1
b1010 4
06
08
09
1;
1=
1>
1?
1@
1A
0C
0F
#6
1-
1.
b0010 0
b0010 4
05
0G
0I
0J
#7
1%
0*
1+
1,
0.
b0011 0
b0110 1
16
07
1C
1F
0H
0K
#8
0$
0%
0&
1'
1(
1*
0,
1.
b1100 0
b0010 1
b0000 4
06
0:
0;
0=
0?
0@
1B
0C
1G
1K
#9
0'
0(
b0100 0
b1000 1
0>
0A
0G
1H
#10
1&
1'
1(
0*
0+
0-
0.
b1011 0
b1000 4
15
16
1:
1;
1=
1A
0B
0F
1G
1I
1J
#11
1#
1$
1%
0&
0'
1)
1*
1.
1/
b0111 0
b1101 1
b0101 4
17
18
19
0;
1B
1C
1D
1E
1F
0G
0I
0J
#12
0#
0(
0)
0*
1+
1,
b0110 0
b1010 1
b0010 4
06
07
08
09
0:
1>
1?
1@
0C
0D
0E
#13
1&
b1110 0
b0011 1
17
1:
1;
1G
0H
#14
1#
0&
1'
b0011 0
b1111 1
b0011 4
16
18
19
0;
0B
1C
0G
1H
#15
0#
0$
0%
1&
1(
0+
0,
0.
0/
b1001 0
b1010 1
b1000 4
07
08
09
1;
0=
0?
0@
0C
0F
1G
1I
1J
#16
1$
1%
0&
0'
0(
1+
1,
1-
b0110 0
b0010 1
b0010 4
05
06
0:
0;
1=
1?
1@
1B
1F
0G
0H
0I
0J
0K
#17
1#
1(
1)
1*
0+
0,
0-
1.
1/
b1101 0
b0111 1
b0101 4
15
16
17
18
19
1:
0=
0?
0@
1C
1D
1E
1G
1K
#18
0#
0$
0%
1&
0(
0)
0*
1-
0/
b0001 0
b1000 1
b0000 4
05
07
08
09
1;
0>
0A
0B
0C
0D
0E
0F
0G
1H
#19
1$
1*
b0011 0
b1010 1
b0010 4
1=
1>
1?
1@
1A
#20
1#
0$
1%
0&
1'
0*
0-
1/
b0101 0
b1101 1
b01 3
b1101 4
15
17
18
19
0;
0=
0>
0?
0@
0A
1B
1C
1D
1E
1F
1I
#21
1$
0'
1(
1)
1*
1-
0.
0/
b0111 1
b0111 4
05
1>
1?
1A
0H
0I
0K
#22
0#
0$
0%
1&
0(
0)
0*
0-
b1000 0
b1001 1
b1001 4
15
06
09
1;
0>
0?
0A
0B
0C
0D
0E
0F
1G
1H
1I
1J
1K
#23
1%
0&
1'
1(
1.
1/
b1110 0
b0100 1
b1110 4
07
08
0:
0;
1=
1?
1A
1B
1C
1D
1E
1F
0H
0J
#24
1$
0%
1&
0'
0(
1*
1-
0/
b1011 0
b0010 1
b1011 4
05
16
18
1:
1;
1>
1@
0B
0C
0D
0E
0F
#25
0$
1%
1'
1(
0*
0-
1/
b1101 0
b0110 1
b1111 4
15
0=
0@
1B
1C
1D
1E
1F
#26
0%
1*
1+
1-
0/
b1011 0
b0100 1
05
1=
0>
0B
0E
#27
0'
0(
0-
0.
b0100 0
b0001 1
b0101 4
06
17
0=
0?
0A
1B
0C
0G
0I
0K
#28
1$
1%
0&
0*
1,
1.
1/
b1110 0
b0010 1
b1110 4
15
07
08
0:
0;
1=
1>
1?
1@
1A
1G
1I
1K
#29
0$
0%
1&
1*
0,
0.
0/
b0100 0
b0001 1
b0101 4
05
17
18
1:
1;
0=
0>
0?
0@
0A
0G
0I
0K
#30
1#
0&
1'
1-
1.
b0001 0
b1101 1
b1101 4
16
19
0;
0B
1C
1H
1I
1K
#31
0#
1%
1&
1(
0*
0+
0-
1/
b1100 0
b0111 1
b1111 4
15
06
09
1;
1>
1?
1A
1B
1E
1G
0H
#32
0%
0'
0(
1-
0/
b0000 0
b1001 1
b1001 4
05
0>
0?
0A
0B
0C
0D
0E
0F
0G
1H
#33
1'
1(
1*
1+
b1110 0
b0001 1
b1111 4
1=
1?
1A
1B
1D
1F
1G
0H
#34
1#
0&
0(
0*
0+
0-
0.
b0001 0
b0001 4
16
19
0;
0=
0?
0A
0B
0D
0F
0G
0I
0K
#35
0#
1%
1&
1(
1.
1/
b1100 0
b0111 1
b1111 4
15
06
09
1;
1>
1?
1A
1B
1C
1D
1E
1F
1G
1I
1K
#36
0%
1*
1+
1-
0/
b1110 0
b0001 1
05
1=
0>
0C
0E
#37
1$
1%
0'
0(
0+
0-
1/
b0111 1
15
1>
1@
1C
1E
#38
0$
0%
0&
1'
1(
1+
0.
0/
b1010 0
b1100 1
b1110 4
07
08
0:
0;
0>
0@
0B
0E
1H
1J
#39
1$
1%
1&
0'
0(
0*
1,
1.
1/
b1011 0
b0110 1
b1111 4
16
18
1:
1;
1>
1@
0H
0J
#40
0$
0%
1'
1(
1*
0,
0.
0/
b1111 0
b1000 1
b10 3
b0111 4
0>
0@
1B
0C
1H
0I
1J
#41
0&
b1100 0
b1010 1
b0110 4
06
08
0:
0;
0=
1>
#42
0'
0(
1-
1.
b0000 1
b1100 4
05
0>
0?
0A
0H
1I
0J
#43
1#
1$
1'
0+
0-
0.
b1011 0
b1011 1
b0110 4
15
16
17
19
1:
1=
1>
1?
1@
1A
0B
0F
1H
0I
1J
#44
0#
1%
1&
0'
0*
1+
1,
1.
1/
b0010 0
b1111 1
b0001 4
06
18
09
1;
0?
1C
0D
1F
0G
0J
#45
0$
0&
0+
0,
b1100 0
b0100 1
b0000 4
07
08
0:
0;
0=
0>
0@
0A
1B
1E
1G
0H
#46
0%
1*
1+
0.
0/
b1000 1
b0100 4
0C
1D
0E
1H
1J
#47
1&
1'
1(
b1011 0
b1100 1
b0111 4
16
18
1:
1;
1=
1?
1A
0B
1C
#48
1$
0&
0'
0(
0+
1-
1.
b0010 0
b1010 1
b1100 4
05
06
08
0:
0;
1>
0?
1@
0C
0F
0G
1I
0J
#49
1%
1&
0*
1+
1,
0-
1/
b1110 0
b0011 1
b0001 4
15
17
18
1:
1;
1B
0D
1F
1G
0H
0I
#50
0%
1*
0+
0,
0.
0/
b1011 0
b1010 1
b0101 4
16
07
0B
1D
0F
1H
1J
#51
0&
b1010 0
b0100 4
06
08
0:
0;
#52
1#
1(
1)
b1011 0
b1001 1
16
17
19
1:
0>
0@
#53
0#
0$
1&
1'
0)
1+
b0001 0
b0110 1
b0111 4
05
07
18
09
1;
0=
1>
1?
1C
1F
0G
0H
0J
0K
#54
1%
0'
0(
0*
0+
1.
1/
b0101 0
b1100 1
b0001 4
15
0>
0?
0A
1B
0D
1E
1H
1K
#55
0&
b1100 0
b0100 1
b0000 4
06
08
0:
0;
1G
0H
#56
0%
1&
1*
1+
1-
0/
b0101 0
b1000 1
b1101 4
05
16
18
1:
1;
0C
1D
0E
0G
1H
1I
#57
1'
1(
b1110 0
b0001 1
b1111 4
06
17
1=
1?
1A
1G
0H
#58
1#
0&
0(
0*
0+
0-
0.
b1001 0
b1001 1
b0010 4
15
16
08
19
0;
0=
0A
0B
0D
0F
1H
0I
1J
#59
0#
1&
1(
1*
1+
b1100 0
b1011 1
b0111 4
06
18
09
1;
1>
1A
1B
1D
1F
